Name,BirthDate,Sex,State,WeightClassKg,Division,BodyweightKg,Age,Best3SquatKg,Best3BenchKg,Best3DeadliftKg,TotalKg,Event,Equipment,Place
Melissa Schudt,,F,IL,56,Submasters 35-39,54.25,,80,45,105,230,SBD,Raw,1
Tera Thornton,,F,IL,60,Masters 45-49,58.69,,70,62.5,120,252.5,SBD,Raw,1
Sarah Collins,,F,IL,75,Open,74.84,31,85,42.5,100,227.5,SBD,Raw,1
Karla Johnson,,F,IL,82.5,Masters 45-49,76.66,,62.5,60,127.5,250,SBD,Raw,1
Katrina Diaz,,F,IL,90,Juniors 20-24,85.55,,152.5,60,165,377.5,SBD,Raw,1
Sandra Foli,,F,IL,90+,Masters 70-74,111.86,,,35,90,125,BD,Raw,1
John Machalinski,,M,IL,56,Teen 16-17,55.61,,,77.5,,77.5,B,Raw,1
Daniel Hernandez,,M,IL,75,Teen 18-19,74.84,,185,110,220,515,SBD,Raw,1
Alex Nigro,,M,IL,75,Juniors 20-24,74.03,,162.5,112.5,205,480,SBD,Raw,1
Gregory Kleyn,,M,IL,82.5,Masters 60-64,80.74,,,,250,250,D,Raw,1
Don Machalinski,,M,IL,82.5,Masters 50-54,80.56,,,107.5,,107.5,B,Raw,2
Rich Schreiber,,M,IL,82.5,Masters 50-54,80.92,,170,,,170,S,Raw,1
Rich Schreiber,,M,IL,82.5,Open,80.92,,170,,,170,S,Raw,1
Rich Schreiber,,M,IL,82.5,Masters 50-54,80.92,,,132.5,,132.5,B,Raw,1
Rich Schreiber,,M,IL,82.5,Open,80.92,,,132.5,,132.5,B,Raw,1
Rich Schreiber,,M,IL,82.5,Masters 50-54,80.92,,,,187.5,187.5,D,Raw,1
Rich Schreiber,,M,IL,82.5,Open,80.92,,,,187.5,187.5,D,Raw,1
Rich Schreiber,,M,IL,82.5,Masters 50-54,80.92,,170,132.5,187.5,490,SBD,Raw,1
Rich Schreiber,,M,IL,82.5,Open,80.92,,170,132.5,187.5,490,SBD,Raw,1
Joseph Zangerle,,M,IL,82.5,Teen 18-19,82.01,,205,165,240,610,SBD,Raw,1
Mohan Gautam,,M,WI,90,Open,86.18,,,,182.5,182.5,D,Raw,2
Don Kinnman,,M,IL,90,Masters 55-59,87.45,,100,107.5,190,397.5,SBD,Raw,1
Michael Lear,,M,IL,90,Law/Fire/Military,86.09,,192.5,127.5,285,605,SBD,Raw,1
Rob Vogelbacher,,M,IL,90,Submasters 35-39,88.45,,205,,,205,S,Raw,1
Rob Vogelbacher,,M,IL,90,Open,88.45,,205,,,205,S,Raw,1
Rob Vogelbacher,,M,IL,90,Submasters 35-39,88.45,,,145,,145,B,Raw,1
Rob Vogelbacher,,M,IL,90,Open,88.45,,,145,,145,B,Raw,1
Rob Vogelbacher,,M,IL,90,Submasters 35-39,88.45,,,,227.5,227.5,D,Raw,1
Rob Vogelbacher,,M,IL,90,Open,88.45,,,,227.5,227.5,D,Raw,1
Rob Vogelbacher,,M,IL,90,Submasters 35-39,88.45,,205,145,227.5,577.5,SBD,Raw,1
Rob Vogelbacher,,M,IL,90,Open,88.45,,205,145,227.5,577.5,SBD,Raw,1
Ryan Anderson,,M,IL,100,Juniors 20-24,96.07,,232.5,142.5,265,640,SBD,Raw,1
Conner DeChant,,M,,100,Juniors 20-24,94.17,,,142.5,,142.5,B,Raw,1
Sean Downs,,M,IL,100,Masters 40-44,91.72,,150,105,190,445,SBD,Raw,1
Maxwell Hayden,,M,IL,100,Juniors 20-24,98.7,,200,130,227.5,557.5,SBD,Raw,2
Shane Moat,,M,IN,100,Open,97.16,,205,165,272.5,642.5,SBD,Raw,1
Humberto Sanchez,,M,IL,100,Submasters 35-39,96.98,,,160,235,395,BD,Raw,1
Jacob Sytsma,,M,IL,100,Teen 16-17,92.99,,,110,,110,B,Raw,1
Yousef Ayad,,M,IL,110,Juniors 20-24,108.5,,202.5,,,202.5,S,Raw,1
Yousef Ayad,,M,IL,110,Open,108.5,,202.5,,,202.5,S,Raw,2
Yousef Ayad,,M,IL,110,Juniors 20-24,108.5,,,142.5,,142.5,B,Raw,1
Yousef Ayad,,M,IL,110,Open,108.5,,,142.5,,142.5,B,Raw,2
Yousef Ayad,,M,IL,110,Juniors 20-24,108.5,,,,260,260,D,Raw,1
Yousef Ayad,,M,IL,110,Open,108.5,,,,260,260,D,Raw,2
Yousef Ayad,,M,IL,110,Juniors 20-24,108.5,,202.5,142.5,260,605,SBD,Raw,1
Yousef Ayad,,M,IL,110,Open,108.5,,202.5,142.5,260,605,SBD,Raw,2
Giovanni Giuliano,,M,IL,110,Masters 40-44,107.68,,227.5,,,227.5,S,Raw,1
Giovanni Giuliano,,M,IL,110,Open,107.68,,227.5,,,227.5,S,Raw,1
Giovanni Giuliano,,M,IL,110,Masters 40-44,107.68,,,160,,160,B,Raw,1
Giovanni Giuliano,,M,IL,110,Open,107.68,,,160,,160,B,Raw,1
Giovanni Giuliano,,M,IL,110,Masters 40-44,107.68,,,,297.5,297.5,D,Raw,1
Giovanni Giuliano,,M,IL,110,Open,107.68,,,,297.5,297.5,D,Raw,1
Giovanni Giuliano,,M,IL,110,Masters 40-44,107.68,,227.5,160,297.5,685,SBD,Raw,1
Giovanni Giuliano,,M,IL,110,Open,107.68,,227.5,160,297.5,685,SBD,Raw,1
Nate Matthews,,M,OH,110,Masters 55-59,104.78,,200,175,290,665,SBD,Raw,1
Andy Stitnicky,,M,IL,110,Open,109.59,,260,190,290,740,SBD,Raw,1
Karl Schudt,,M,IL,125,Masters 40-44,117.39,,235,187.5,240,662.5,SBD,Raw,1
Raymond Clasing,,M,MD,140,Law/Fire/Military,128.55,54,165,182.5,207.5,555,SBD,Raw,1
Justin Law,,M,IL,140,Open,137.8,,165,132.5,210,507.5,SBD,Raw,1
