Division,WeightClassKg,Place,Name,Team,BodyweightKg,Best3SquatKg,Best3BenchKg,Best3DeadliftKg,TotalKg,Equipment,Event,Sex
Boys,51.71,1,Sam Collier,Lake Dallas,51.26,120.2,90.72,142.88,353.8,Single-ply,SBD,M
Boys,51.71,2,Gianluca Figuroa,Carrollton Smith,47.63,90.72,58.97,117.93,267.62,Single-ply,SBD,M
Boys,51.71,3,Jayvonn Bailey,Carrollton Smith,51.71,97.52,61.23,99.79,258.55,Single-ply,SBD,M
Boys,51.71,4,Donovan Carter #3,Carrollton Ranchview,47.63,68.04,47.63,61.23,176.9,Single-ply,SBD,M
Boys,55.79,1,James Washington,Carrollton Ranchview,55.34,104.33,61.23,120.2,285.76,Single-ply,SBD,M
Boys,59.87,1,John Tran,Carrollton Creekview,57.61,136.08,88.45,165.56,390.09,Single-ply,SBD,M
Boys,59.87,2,Jose Peraza,Carrollton Smith,59.78,138.35,83.91,149.69,371.95,Single-ply,SBD,M
Boys,59.87,3,Andrew Mast,Carrollton Creekview,58.42,124.74,83.91,136.08,344.73,Single-ply,SBD,M
Boys,59.87,4,Rory Smith,Carrollton Ranchview,59.87,117.93,70.31,136.08,324.32,Single-ply,SBD,M
Boys,67.13,1,Cameron Gray #4,Carrollton Creekview,66.77,195.04,104.33,199.58,498.95,Single-ply,SBD,M
Boys,67.13,2,David Thompson,Carrollton Creekview,66.54,170.1,111.13,183.7,464.93,Single-ply,SBD,M
Boys,67.13,3,Aaron Cyrus,Carrollton Creekview,66.68,172.37,97.52,181.44,451.32,Single-ply,SBD,M
Boys,67.13,4,Donovan Smith,Carrollton Turner,67.04,158.76,102.06,170.1,430.91,Single-ply,SBD,M
Boys,67.13,5,Stephen Garcia,Carrollton Creekview,66.45,145.15,86.18,172.37,403.7,Single-ply,SBD,M
Boys,67.13,6,Kasey Nguyen,Carrollton Creekview,66.9,158.76,88.45,149.69,396.89,Single-ply,SBD,M
Boys,67.13,7,Damian Alston,Carrollton Smith,66.22,165.56,79.38,136.08,381.02,Single-ply,SBD,M
Boys,67.13,8,Caleb McKnight,Carrollton Ranchview,66.22,136.08,95.25,145.15,376.48,Single-ply,SBD,M
Boys,67.13,9,Drew McKinney,Lake Dallas,61.69,124.74,68.04,142.88,335.66,Single-ply,SBD,M
Boys,67.13,DQ,Clevon Harmon,Carrollton Ranchview,65.77,127.01,,,,Single-ply,SBD,M
Boys,74.84,1,Isai Pena,Carrollton Creekview,73.48,215.46,117.93,222.26,555.65,Single-ply,SBD,M
Boys,74.84,2,Troy McKnight,Carrollton Ranchview,74.84,197.31,106.59,199.58,503.49,Single-ply,SBD,M
Boys,74.84,3,Rickie Brown,Carrollton Creekview,68.95,158.76,108.86,156.49,424.11,Single-ply,SBD,M
Boys,74.84,4,Austin Rutman,Lake Dallas,70.67,145.15,86.18,158.76,390.09,Single-ply,SBD,M
Boys,74.84,5,Lindsey Trevor,Lake Dallas,74.84,142.88,81.65,165.56,390.09,Single-ply,SBD,M
Boys,74.84,6,Jeter Mason,Lake Dallas,70.99,129.27,83.91,170.1,383.29,Single-ply,SBD,M
Boys,74.84,7,Genesis Solomon,Carrollton Turner,71.67,127.01,86.18,151.95,365.14,Single-ply,SBD,M
Boys,74.84,8,Collin Bloomfield,Lake Dallas,73.48,113.4,83.91,154.22,351.53,Single-ply,SBD,M
Boys,74.84,9,Hunter Parker,Carrollton Turner,73.48,111.13,81.65,136.08,328.85,Single-ply,SBD,M
Boys,74.84,10,Heynar Berrios,Carrollton Creekview,72.57,115.67,72.57,124.74,312.98,Single-ply,SBD,M
Boys,74.84,11,Yosiah Augustine,Lake Dallas,69.4,74.84,43.09,95.25,213.19,Single-ply,SBD,M
Boys,82.1,1,Hung Tran,Carrollton Creekview,80.51,210.92,122.47,204.12,537.51,Single-ply,SBD,M
Boys,82.1,2,Kennedy Wood,Carrollton Ranchview,79.38,181.44,86.18,165.56,433.18,Single-ply,SBD,M
Boys,82.1,3,Josh Toyphommarath,Carrollton Creekview,77.56,138.35,97.52,147.42,383.29,Single-ply,SBD,M
Boys,82.1,4,Austin Arviso,Lake Dallas,82.1,133.81,77.11,165.56,376.48,Single-ply,SBD,M
Boys,82.1,5,Cohen Finch,Lake Dallas,80.74,88.45,70.31,124.74,283.5,Single-ply,SBD,M
Boys,89.81,1,Corey Wyatt,Carrollton Smith,88.81,204.12,117.93,183.7,505.76,Single-ply,SBD,M
Boys,89.81,2,Ikechi Onyekwere,Lake Dallas,86.41,192.78,127.01,183.7,503.49,Single-ply,SBD,M
Boys,89.81,3,Ethan Griffin,Lake Dallas,88.22,190.51,102.06,183.7,476.27,Single-ply,SBD,M
Boys,89.81,4,Jonathan Synoground,Lake Dallas,86.86,183.7,83.91,181.44,449.06,Single-ply,SBD,M
Boys,89.81,5,Shun Mizuno,Carrollton Ranchview,84.37,174.63,86.18,174.63,435.45,Single-ply,SBD,M
Boys,89.81,6,Josiah Robison,Carrollton Creekview,86.64,161.03,97.52,158.76,417.3,Single-ply,SBD,M
Boys,89.81,7,Croft Stevens,Lake Dallas,88.45,151.95,83.91,163.29,399.16,Single-ply,SBD,M
Boys,89.81,8,Nelson Viera,Carrollton Turner,82.55,140.61,70.31,149.69,360.61,Single-ply,SBD,M
Boys,89.81,9,Jaden McCarter,Lake Dallas,84.82,120.2,72.57,124.74,317.51,Single-ply,SBD,M
Boys,99.79,1,Tristen Myers,Carrollton Creekview,98.88,288.03,215.46,238.14,741.62,Single-ply,SBD,M
Boys,99.79,2,Nathaniel Borne,Carrollton Smith,97.98,181.44,92.99,197.31,471.74,Single-ply,SBD,M
Boys,99.79,3,Nathan Paik,Carrollton Ranchview,97.98,158.76,83.91,172.37,415.04,Single-ply,SBD,M
Boys,99.79,4,Miguel Renteria,Carrollton Creekview,92.99,133.81,81.65,147.42,362.87,Single-ply,SBD,M
Boys,99.79,5,Berry Jackson,Lake Dallas,92.99,136.08,79.38,142.88,358.34,Single-ply,SBD,M
Boys,99.79,6,Goziem Onyekwere,Lake Dallas,92.08,86.18,61.23,90.72,238.14,Single-ply,SBD,M
Boys,109.77,1,Christian Jimenez,Carrollton Turner,105.23,179.17,122.47,179.17,480.81,Single-ply,SBD,M
Boys,109.77,2,Yornen Ortez,Carrollton Creekview,107.5,192.78,104.33,183.7,480.81,Single-ply,SBD,M
Boys,109.77,3,Brandon Dominguez,Carrollton Smith,103.87,161.03,92.99,142.88,396.89,Single-ply,SBD,M
Boys,109.77,DQ,Michael Henderson,Carrollton Ranchview,105.23,,,,,Single-ply,SBD,M
Boys,124.74,1,Antonio Reader,Carrollton Ranchview,113.4,208.65,108.86,217.72,535.24,Single-ply,SBD,M
Boys,124.74,2,Michael Soileau,Lake Dallas,122.02,183.7,102.06,174.63,460.4,Single-ply,SBD,M
Boys,124.74,3,Tony Baker,Carrollton Creekview,110.68,170.1,111.13,154.22,435.45,Single-ply,SBD,M
Boys,124.74,4,Deven Holder,Lake Dallas,112.04,161.03,83.91,174.63,419.57,Single-ply,SBD,M
Boys,124.74,5,Efrain Gurreca,Carrollton Turner,116.35,147.42,92.99,151.95,392.36,Single-ply,SBD,M
Boys,124.74+,1,Jaelon Moore,Carrollton Smith,142.88,151.95,83.91,113.4,349.27,Single-ply,SBD,M
Boys,124.74+,2,Alek Llanes,Carrollton Ranchview,138.35,113.4,54.43,129.27,297.1,Single-ply,SBD,M
Boys,,NS,Zion Lance,Carrollton Creekview,,,,,,Single-ply,SBD,M
Boys,,NS,Izaiah Cooper,Lake Dallas,,,,,,Single-ply,SBD,M
Boys,,NS,David Blair,Lake Dallas,,,,,,Single-ply,SBD,M
