Division,WeightClassKg,Place,Name,Team,BodyweightKg,Best3SquatKg,Best3BenchKg,Best3DeadliftKg,TotalKg,Equipment,Event,Sex
Boys,55.79,1,Rafael Morales,Laredo Cigarroa,51.89,147.42,83.91,156.49,387.82,Single-ply,SBD,M
Boys,51.71,2,Francisco Fuentes,Zapata,45.36,102.06,49.9,108.86,260.82,Single-ply,SBD,M
Boys,51.71,3,Chris Marroquin,Hebbronville,44,79.38,43.09,99.79,222.26,Single-ply,SBD,M
Boys,55.79,1,Enrique Alvarez,Laredo Cigarroa,55.61,188.24,104.33,179.17,471.74,Single-ply,SBD,M
Boys,59.87,2,Felipe Medina,Zapata,55.97,154.22,104.33,183.7,442.25,Single-ply,SBD,M
Boys,55.79,3,Amado De La Fuente,Laredo United South,55.61,154.22,95.25,181.44,430.91,Single-ply,SBD,M
Boys,59.87,4,Christian Sanchez,Cotulla,56.02,131.54,79.38,156.49,367.41,Single-ply,SBD,M
Boys,59.87,5,Xavier Delgado,Zapata,56.02,124.74,77.11,147.42,349.27,Single-ply,SBD,M
Boys,55.79,6,Randy Castillo,Bruni,55.34,131.54,61.23,131.54,324.32,Single-ply,SBD,M
Boys,59.87,1,Cesar Alfaro,Laredo United South,58.51,151.95,99.79,174.63,426.38,Single-ply,SBD,M
Boys,67.13,2,Juan Ramos,Hebbronville,60.06,129.27,86.18,174.63,390.09,Single-ply,SBD,M
Boys,59.87,3,Carlos Vedarte,Laredo United South,58.06,133.81,86.18,151.95,371.95,Single-ply,SBD,M
Boys,67.13,4,Jairo Morales,Laredo Cigarroa,60.1,142.88,61.23,163.29,367.41,Single-ply,SBD,M
Boys,59.87,5,Ted Crain,Falfurrias,59.69,117.93,70.31,133.81,322.05,Single-ply,SBD,M
Boys,59.87,6,Javier Garza,Bruni,59.42,120.2,65.77,131.54,317.51,Single-ply,SBD,M
Boys,59.87,DQ,Jordy Silguero,Hebbronville,59.87,142.88,115.67,,,Single-ply,SBD,M
Boys,67.13,1,Rene Molina,Hebbronville,66.59,190.51,104.33,192.78,487.61,Single-ply,SBD,M
Boys,67.13,2,Luis Castillo,Laredo United South,63.41,174.63,102.06,174.63,451.32,Single-ply,SBD,M
Boys,74.84,3,Josue Valdez,Zapata,67.36,161.03,92.99,181.44,435.45,Single-ply,SBD,M
Boys,67.13,4,Benny Ray Castor,Cotulla,65.77,161.03,90.72,167.83,419.57,Single-ply,SBD,M
Boys,67.13,5,Kevin Guerrero,Hebbronville,65.77,156.49,90.72,165.56,412.77,Single-ply,SBD,M
Boys,67.13,6,Mark Ruiz,Cotulla,67.13,154.22,92.99,165.56,412.77,Single-ply,SBD,M
Boys,67.13,7,Frank Rubalcava,Laredo Cigarroa,66.04,151.95,97.52,158.76,408.23,Single-ply,SBD,M
Boys,67.13,8,Elijio Montalvo,Falfurrias,65.68,142.88,83.91,163.29,390.09,Single-ply,SBD,M
Boys,67.13,9,Esteban Salinas,Laredo Nixon,66.41,142.88,74.84,163.29,381.02,Single-ply,SBD,M
Boys,67.13,10,Jorge Silva,Laredo Nixon,65,131.54,74.84,170.1,376.48,Single-ply,SBD,M
Boys,67.13,11,Ricky Ayala,Cotulla,63.05,127.01,70.31,149.69,347,Single-ply,SBD,M
Boys,67.13,12,Mike Munoz,Bruni,60.42,117.93,63.5,129.27,310.71,Single-ply,SBD,M
Boys,67.13,13,Dino Costilla,Falfurrias,62.51,102.06,72.57,136.08,310.71,Single-ply,SBD,M
Boys,67.13,14,Raul Alfaro,Laredo Cigarroa,61.51,83.91,74.84,111.13,269.89,Single-ply,SBD,M
Boys,67.13,DQ,Mario Cantu,Laredo Cigarroa,64.41,149.69,,,,Single-ply,SBD,M
Boys,74.84,1,Danny Flores,Zapata,67.68,213.19,127.01,219.99,560.19,Single-ply,SBD,M
Boys,82.1,2,Cesar Castillo,Laredo United South,75.07,199.58,145.15,215.46,560.19,Single-ply,SBD,M
Boys,74.84,3,Abram Guerra,Rio Grande City,73.66,222.26,108.86,195.04,526.17,Single-ply,SBD,M
Boys,74.84,4,Mike Benavides,Laredo Cigarroa,71.85,183.7,122.47,199.58,505.76,Single-ply,SBD,M
Boys,74.84,5,Edgar Mendiola,Laredo Nixon,73.48,185.97,117.93,199.58,503.49,Single-ply,SBD,M
Boys,74.84,6,Adrian Reyna,Rio Grande City,74.3,181.44,90.72,170.1,442.25,Single-ply,SBD,M
Boys,74.84,7,Fermin Rendon,Laredo Nixon,72.12,161.03,88.45,185.97,435.45,Single-ply,SBD,M
Boys,74.84,8,Julio Cruz,Bruni,72.03,161.03,70.31,167.83,399.16,Single-ply,SBD,M
Boys,74.84,9,Woodrow Garcia,Cotulla,72.62,127.01,65.77,170.1,362.87,Single-ply,SBD,M
Boys,74.84,10,Dillon Vasquez,Falfurrias,73.66,120.2,88.45,142.88,351.53,Single-ply,SBD,M
Boys,74.84,11,Lupe Saenz,Falfurrias,73.66,136.08,88.45,124.74,349.27,Single-ply,SBD,M
Boys,74.84,12,Jose Villarreal,Zapata,70.76,124.74,68.04,136.08,328.85,Single-ply,SBD,M
Boys,82.1,1,David Garza,Cotulla,80.56,176.9,115.67,204.12,496.68,Single-ply,SBD,M
Boys,82.1,2,Ricky Prado,Zapata,81.65,192.78,113.4,185.97,492.15,Single-ply,SBD,M
Boys,82.1,3,Armin Solis,Rio Grande City,77.56,188.24,120.2,176.9,485.34,Single-ply,SBD,M
Boys,82.1,4,Erasmo Canales,Rio Grande City,79.2,181.44,113.4,183.7,478.54,Single-ply,SBD,M
Boys,82.1,5,Jordan Garcia #6,Cotulla,82.1,151.95,111.13,167.83,430.91,Single-ply,SBD,M
Boys,82.1,6,Kevin Alaniz,Rio Grande City,81.74,170.1,95.25,154.22,419.57,Single-ply,SBD,M
Boys,82.1,7,Tony Gonzalez,Falfurrias,79.47,124.74,92.99,142.88,360.61,Single-ply,SBD,M
Boys,89.81,1,Justin Sosa,Zapata,89.09,249.48,154.22,233.6,637.3,Single-ply,SBD,M
Boys,99.79,2,Richie Lopez,Laredo United South,90.04,240.4,145.15,238.14,623.69,Single-ply,SBD,M
Boys,89.81,3,Ricardo Lopez Jr,Rio Grande City,86.82,219.99,136.08,195.04,551.11,Single-ply,SBD,M
Boys,89.81,4,Epifino Chavero,Rio Grande City,83.19,204.12,131.54,201.85,537.51,Single-ply,SBD,M
Boys,89.81,5,Justin Fuentes,Zapata,89.36,206.38,129.27,192.78,528.44,Single-ply,SBD,M
Boys,89.81,6,Danny Sanchez,Laredo United South,86.27,172.37,115.67,208.65,496.68,Single-ply,SBD,M
Boys,89.81,7,Larry Banda,Laredo Nixon,86.45,188.24,117.93,190.51,496.68,Single-ply,SBD,M
Boys,89.81,8,Joseph Wells,Laredo Nixon,89.18,192.78,127.01,165.56,485.34,Single-ply,SBD,M
Boys,89.81,9,Angel Pena,Falfurrias,85,176.9,104.33,185.97,467.2,Single-ply,SBD,M
Boys,89.81,10,Adrian Ayala,Cotulla,85.09,154.22,92.99,206.38,453.59,Single-ply,SBD,M
Boys,89.81,11,JJ Vela,Falfurrias,88.09,174.63,90.72,181.44,446.79,Single-ply,SBD,M
Boys,99.79,12,John Moreno,Hebbronville,89.99,161.03,102.06,174.63,437.72,Single-ply,SBD,M
Boys,89.81,13,Mike DeLeon,Falfurrias,87.18,142.88,104.33,147.42,394.63,Single-ply,SBD,M
Boys,89.81,14,Victor Ramos,Laredo United South,88.54,151.95,83.91,156.49,392.36,Single-ply,SBD,M
Boys,89.81,DQ,Jorge Guerra,Zapata,89.81,,,,,Single-ply,SBD,M
Boys,99.79,1,Alex Costilla,Falfurrias,92.9,276.69,176.9,244.94,698.53,Single-ply,SBD,M
Boys,99.79,2,Jose Correas,Laredo Cigarroa,99.43,238.14,111.13,226.8,576.06,Single-ply,SBD,M
Boys,99.79,3,Erick Fernandez,Laredo Nixon,98.88,190.51,129.27,206.38,526.17,Single-ply,SBD,M
Boys,99.79,4,George Gonzalez,Laredo United South,94.35,183.7,111.13,226.8,521.63,Single-ply,SBD,M
Boys,99.79,5,Heriberto Canales,Hebbronville,95.71,201.85,102.06,206.38,510.29,Single-ply,SBD,M
Boys,99.79,6,Carlos Muñoz,Laredo Nixon,95.35,183.7,92.99,206.38,483.08,Single-ply,SBD,M
Boys,109.77,7,Juan Jasso,Zapata,99.93,188.24,92.99,172.37,453.59,Single-ply,SBD,M
Boys,99.79,8,Paul Gonzalez,Laredo United South,95.8,158.76,108.86,183.7,451.32,Single-ply,SBD,M
Boys,99.79,9,Lencho Huerta,Hebbronville,96.16,167.83,99.79,183.7,451.32,Single-ply,SBD,M
Boys,99.79,10,Esteban Arredondo,Hebbronville,93.89,158.76,95.25,195.04,449.06,Single-ply,SBD,M
Boys,99.79,11,Danny Saenz,Bruni,90.99,129.27,88.45,158.76,376.48,Single-ply,SBD,M
Boys,109.77,1,Andy Costilla,Falfurrias,107.05,272.16,149.69,235.87,657.71,Single-ply,SBD,M
Boys,109.77,2,Ivan Gonzalez,Bruni,107.5,249.48,113.4,272.16,635.03,Single-ply,SBD,M
Boys,109.77,3,Jose Rubalcava,Rio Grande City,109.5,233.6,138.35,213.19,585.13,Single-ply,SBD,M
Boys,109.77,4,Raul Hinojosa,Zapata,108.86,233.6,142.88,206.38,582.87,Single-ply,SBD,M
Boys,109.77,5,Lupe Gonzalez #3,Zapata,107.95,204.12,108.86,201.85,514.83,Single-ply,SBD,M
Boys,109.77,6,Jorge Gutierrez,Zapata,105.41,172.37,136.08,183.7,492.15,Single-ply,SBD,M
Boys,109.77,7,Frank Moreno,Zapata,109.77,179.17,79.38,190.51,449.06,Single-ply,SBD,M
Boys,124.74,8,Roberto Rodriguez #4,Laredo Cigarroa,110,183.7,115.67,142.88,442.25,Single-ply,SBD,M
Boys,109.77,9,Justin Hernandez,Laredo Nixon,106.32,154.22,97.52,156.49,408.23,Single-ply,SBD,M
Boys,124.74,1,Joel Sanchez #3,Rio Grande City,112.04,215.46,124.74,208.65,548.85,Single-ply,SBD,M
Boys,124.74,2,Rolando Garza,Hebbronville,115.67,192.78,115.67,201.85,510.29,Single-ply,SBD,M
Boys,124.74,3,Jaime Cardona,Laredo Nixon,116.75,213.19,102.06,192.78,508.02,Single-ply,SBD,M
Boys,124.74,4,Francisco Moreno #1,Laredo Cigarroa,124.74,158.76,81.65,158.76,399.16,Single-ply,SBD,M
Boys,124.74,5,Chris Lira,Bruni,118.12,158.76,88.45,145.15,392.36,Single-ply,SBD,M
Boys,124.74+,1,Jason Guerra,Rio Grande City,127.91,272.16,174.63,215.46,662.24,Single-ply,SBD,M
Boys,124.74+,2,Rudy Martinez,Laredo Nixon,125.01,222.26,113.4,204.12,539.77,Single-ply,SBD,M
Boys,124.74+,3,Miguel Costilla,Cotulla,125.37,199.58,106.59,192.78,498.95,Single-ply,SBD,M
Boys,124.74+,4,Manuel Navarro,Zapata,126.55,161.03,90.72,138.35,390.09,Single-ply,SBD,M
Boys,124.74+,DQ,Jacob Chapa,Bruni,139.8,183.7,,,,Single-ply,SBD,M
