Place,Name,Sex,BirthDate,Age,Country,Equipment,Division,BodyweightKg,WeightClassKg,Squat1Kg,Squat2Kg,Squat3Kg,Best3SquatKg,Bench1Kg,Bench2Kg,Bench3Kg,Best3BenchKg,Deadlift1Kg,Deadlift2Kg,Deadlift3Kg,Best3DeadliftKg,TotalKg,Event,Team
1,Lauren Mullane,F,1996-11-28,23,Ireland,Raw,F-O,51,52,92.5,97.5,100,100,37.5,-40,-42.5,37.5,95,102.5,110,110,247.5,SBD,STU
2,Abi Houlihan,F,1980-01-01,39,Ireland,Raw,F-O,50.4,52,90,-95,95,95,25,30,32.5,32.5,85,90,95,95,222.5,SBD,CGL
1,Leanne Quinn,F,1993-06-09,26,Ireland,Raw,F-O,56,57,90,95,-100,95,52.5,-57.5,-57.5,52.5,100,105,110,110,257.5,SBD,STU
2,Aine Butler,F,2000-03-07,19,Ireland,Raw,F-O,56.8,57,80,85,90,90,45,47.5,50,50,95,100,105,105,245,SBD,STU
3,Pamela Myers,F,1985-04-29,34,Ireland,Raw,F-O,52.2,57,80,-85,-85,80,45,-50,50,50,95,105,110,110,240,SBD,-
1,Amy Cahill,F,1980-10-20,39,Ireland,Raw,F-O,60.6,63,120,125,132.5,132.5,60,65,67.5,67.5,120,125,132.5,132.5,332.5,SBD,FCF
2,Aisling Stapleton,F,1992-02-19,27,Ireland,Raw,F-O,61.8,63,115,120,-125,120,60,62.5,65,65,120,127.5,132.5,132.5,317.5,SBD,CGL
3,Caitlin Lee,F,2003-04-24,16,Ireland,Raw,F-O,59.2,63,95,102.5,-107.5,102.5,45,-50,50,50,105,110,115,115,267.5,SBD,CGL
4,Vivienne Glynn,F,1980-01-01,39,Ireland,Raw,F-O,62,63,75,82.5,87.5,87.5,42.5,47.5,50,50,100,105,112.5,112.5,250,SBD,CGL
1,Louise Millar,F,1986-06-16,33,Ireland,Raw,F-O,72,72,125,130,135,135,95,100,105,105,130,140,150,150,390,SBD,CUS
2,Carrie Egan,F,1995-03-27,24,Ireland,Raw,F-O,69,72,125,132.5,140,140,67.5,72.5,75,75,145,152.5,157.5,157.5,372.5,SBD,-
3,Sarah Grogan,F,1991-11-01,28,Ireland,Raw,F-O,69.6,72,125,132.5,135,135,72.5,77.5,-80,77.5,-145,150,157.5,157.5,370,SBD,CGL
4,Suzanne Gray #2,F,1995-06-06,24,Ireland,Raw,F-O,71.8,72,115,122.5,127.5,127.5,65,70,72.5,72.5,135,-145,150,150,350,SBD,HUB
5,Carol Lennon,F,1982-06-03,37,Ireland,Raw,F-O,67.4,72,115,120,125,125,52.5,55,57.5,57.5,125,135,140,140,322.5,SBD,CGL
6,Fiona Glynn,F,1989-08-25,30,Ireland,Raw,F-O,63.6,72,105,112.5,117.5,117.5,55,57.5,-60,57.5,120,127.5,-132.5,127.5,302.5,SBD,-
1,Fiona Walshe,F,1973-12-04,46,Ireland,Raw,F-O,72.2,84,117.5,122.5,127.5,127.5,57.5,60,62.5,62.5,142.5,150,155,155,345,SBD,-
1,Aisling Lee,F,1993-08-25,26,Ireland,Raw,F-O,114,84+,105,115,125,125,60,65,-70,65,105,115,125,125,315,SBD,KAO
1,Kieron Ring,M,1998-03-09,21,Ireland,Raw,M-O,64.8,66,167.5,175,180,180,102.5,107.5,112.5,112.5,190,205,212.5,212.5,505,SBD,KTS
2,Gary O'Halloran,M,2003-04-12,16,Ireland,Raw,M-O,64,66,135,142.5,147.5,147.5,92.5,97.5,102.5,102.5,175,185,200,200,450,SBD,CGL
1,Calum O'Mahony,M,1980-01-01,39,Ireland,Raw,M-O,72.8,74,187.5,197.5,205,205,105,112.5,-117.5,112.5,212.5,225,235,235,552.5,SBD,ODS
2,Jack Cooney,M,2001-12-13,18,Ireland,Raw,M-O,72.6,74,155,165,175,175,95,-105,105,105,175,185,200,200,480,SBD,CGL
3,Ronan Lynch,M,2003-11-28,16,Ireland,Raw,M-O,71.8,74,117.5,130,135,135,75,80,-82.5,80,157.5,170,-180,170,385,SBD,CGL
1,Mark Cosgrove,M,1988-04-09,31,Ireland,Raw,M-O,83,83,190,-202.5,202.5,202.5,137.5,145,-150,145,225,240,-250,240,587.5,SBD,RTB
2,Niall Creegan,M,1997-06-11,22,Ireland,Raw,M-O,76.8,83,170,177.5,180,180,115,120,125,125,200,207.5,-215,207.5,512.5,SBD,KTS
3,James Kelly,M,1991-05-19,28,Ireland,Raw,M-O,81,83,175,185,195,195,95,100,105,105,182.5,195,205,205,505,SBD,CGL
4,Ilya Olesovs,M,2002-05-07,17,Ireland,Raw,M-O,81.6,83,160,-170,-170,160,110,-115,-117.5,110,200,210,-220,210,480,SBD,-
5,Nathan Breslin,M,2002-01-13,17,Ireland,Raw,M-O,78.4,83,167.5,175,182.5,182.5,87.5,92.5,95,95,167.5,175,180,180,457.5,SBD,APC
6,Andrew Mulcahy,M,2001-12-25,17,Ireland,Raw,M-O,80.6,83,-140,-147.5,147.5,147.5,85,90,-92.5,90,190,-200,200,200,437.5,SBD,CGL
7,David Bourke,M,2003-08-14,16,Ireland,Raw,M-O,78,83,130,140,145,145,85,92.5,100,100,187.5,-197.5,-197.5,187.5,432.5,SBD,CGL
8,Niall Curtin,M,2002-07-02,17,Ireland,Raw,M-O,79,83,125,132.5,-137.5,132.5,85,90,-95,90,150,160,170,170,392.5,SBD,CGL
1,Melvin Conteh,M,1999-12-13,20,Ireland,Raw,M-O,91,93,205,215,220,220,175,180,185,185,237.5,255,265,265,670,SBD,KTS
2,David Nolan,M,1994-03-11,25,Ireland,Raw,M-O,91.8,93,215,222.5,227.5,227.5,127.5,132.5,135,135,230,245,250,250,612.5,SBD,-
3,Adam Phillips,M,1998-09-07,21,Ireland,Raw,M-O,91.2,93,210,225,232.5,232.5,105,112.5,-115,112.5,235,-255,-255,235,580,SBD,ODS
4,Kevin Croughan,M,1996-01-04,23,Ireland,Raw,M-O,84.8,93,155,-157.5,-170,155,100,110,-120,110,180,-200,-200,180,445,SBD,-
1,Eoin Turner,M,1998-07-25,21,Ireland,Raw,M-O,101,105,215,227.5,235,235,132.5,140,145,145,240,257.5,272.5,272.5,652.5,SBD,CGL
2,Jack Heavey,M,1998-02-25,21,Ireland,Raw,M-O,104.8,105,215,225,232.5,232.5,132.5,140,145,145,-225,-225,225,225,602.5,SBD,CGL
1,Simon Leen,M,1988-07-07,31,Ireland,Raw,M-O,114,120,240,250,-260,250,170,180,185,185,-270,270,-280,270,705,SBD,-
2,Tom Daly,M,1990-01-16,29,Ireland,Raw,M-O,113.4,120,200,215,-230,215,150,160,-170,160,260,-272.5,-272.5,260,635,SBD,STU
3,Patrick Garvey,M,1997-09-18,22,Ireland,Raw,M-O,114.2,120,195,205,220,220,117.5,127.5,135,135,232.5,247.5,-265,247.5,602.5,SBD,CGL
