Division,WeightClassKg,Place,Name,Team,BodyweightKg,Best3SquatKg,Best3BenchKg,Best3DeadliftKg,TotalKg,Equipment,Event,Sex
Boys,51.71,1,Randy Trevino,Gregory-Portland,51.71,149.69,79.38,154.22,383.29,Single-ply,SBD,M
Boys,55.79,2,Joe Castillo #4,Gregory-Portland,51.8,140.61,74.84,138.35,353.8,Single-ply,SBD,M
Boys,51.71,3,Patrick Ayala,Banquete,51.26,92.99,63.5,140.61,297.1,Single-ply,SBD,M
Boys,51.71,4,Thomas Tillman,Corpus Christi Tuloso-Midway,51.44,83.91,56.7,90.72,231.33,Single-ply,SBD,M
Boys,55.79,DQ,Bobby Bourlon,Banquete,51.94,,,,,Single-ply,SBD,M
Boys,59.87,1,Daniel Chapa,Gregory-Portland,56.02,185.97,106.59,208.65,501.22,Single-ply,SBD,M
Boys,55.79,2,Robert Chapa,Gregory-Portland,54.61,179.17,99.79,190.51,469.47,Single-ply,SBD,M
Boys,59.87,3,John Starks,Banquete,55.97,165.56,113.4,183.7,462.66,Single-ply,SBD,M
Boys,55.79,4,Jacob de la Paz,Corpus Christi Calallen,54.43,156.49,72.57,156.49,385.55,Single-ply,SBD,M
Boys,55.79,5,Marcus Hernandez #1,Victoria West,55.25,147.42,72.57,151.95,371.95,Single-ply,SBD,M
Boys,55.79,6,Jared Medina,Banquete,55.07,131.54,72.57,147.42,351.53,Single-ply,SBD,M
Boys,55.79,7,Garrett Wildman,Banquete,55.34,131.54,68.04,149.69,349.27,Single-ply,SBD,M
Boys,55.79,8,Robert Ramos,Corpus Christi Tuloso-Midway,52.62,136.08,72.57,136.08,344.73,Single-ply,SBD,M
Boys,55.79,9,David Van #2,Gregory-Portland,54.25,113.4,61.23,136.08,310.71,Single-ply,SBD,M
Boys,55.79,10,Caleb Phillips,Port Lavaca Calhoun,54.79,124.74,61.23,122.47,308.44,Single-ply,SBD,M
Boys,55.79,11,Tyler Brown,Victoria West,54.16,102.06,54.43,113.4,269.89,Single-ply,SBD,M
Boys,59.87,12,Jj Riddell,Ingleside,56.02,95.25,49.9,120.2,265.35,Single-ply,SBD,M
Boys,55.79,DQ,Jacob Gonzales,Gregory-Portland,53.89,113.4,49.9,142.88,,Single-ply,SBD,M
Boys,59.87,DQ,Robert Seward,Corpus Christi Calallen,56.02,,,,,Single-ply,SBD,M
Boys,59.87,1,Jeff Kearns,Gregory-Portland,59.87,181.44,106.59,192.78,480.81,Single-ply,SBD,M
Boys,59.87,2,Marcus Crespin,Victoria West,58.06,154.22,83.91,172.37,410.5,Single-ply,SBD,M
Boys,67.13,3,Tony Navarro,Victoria West,60.06,154.22,83.91,172.37,410.5,Single-ply,SBD,M
Boys,59.87,4,Ben Heard,Corpus Christi Calallen,59.19,147.42,81.65,165.56,394.63,Single-ply,SBD,M
Boys,67.13,5,Tristan Ruiz,Corpus Christi Calallen,60.06,149.69,83.91,161.03,394.63,Single-ply,SBD,M
Boys,59.87,6,John Renniger,Gregory-Portland,58.06,136.08,74.84,163.29,374.21,Single-ply,SBD,M
Boys,59.87,7,Andre Wilson,Kingsville King,58.29,129.27,68.04,165.56,362.87,Single-ply,SBD,M
Boys,67.13,8,Daniel Martinez #16,Port Lavaca Calhoun,59.96,138.35,61.23,145.15,344.73,Single-ply,SBD,M
Boys,59.87,9,Pedro Pena,Rockport-Fulton,57.61,117.93,90.72,102.06,310.71,Single-ply,SBD,M
Boys,59.87,10,Fidencio Hernandez,Gregory-Portland,57.33,106.59,65.77,136.08,308.44,Single-ply,SBD,M
Boys,59.87,DQ,Samuel Navarro,Beeville Jones,59.33,158.76,,,,Single-ply,SBD,M
Boys,74.84,1,JJ Gonzalez,Gregory-Portland,67.36,244.94,149.69,224.53,619.15,Single-ply,SBD,M
Boys,67.13,2,Joe Alvarado,Victoria West,66.45,174.63,106.59,179.17,460.4,Single-ply,SBD,M
Boys,67.13,3,David Ledbetter,Victoria West,66.41,172.37,108.86,174.63,455.86,Single-ply,SBD,M
Boys,74.84,4,Qualian Bryant,Victoria West,67.31,165.56,90.72,199.58,455.86,Single-ply,SBD,M
Boys,67.13,5,Josue Gonzalez,Corpus Christi Calallen,66.59,172.37,108.86,172.37,453.59,Single-ply,SBD,M
Boys,67.13,6,Desmon Riser,Port Lavaca Calhoun,66.45,174.63,81.65,154.22,410.5,Single-ply,SBD,M
Boys,67.13,7,Colton Hughes,Corpus Christi Tuloso-Midway,65.68,145.15,83.91,172.37,401.43,Single-ply,SBD,M
Boys,67.13,8,Caleb Marek,Victoria West,64.41,149.69,79.38,156.49,385.55,Single-ply,SBD,M
Boys,67.13,9,Quinton Moreno,Gregory-Portland,64.5,138.35,90.72,151.95,381.02,Single-ply,SBD,M
Boys,67.13,10,Damien Cisneros,Gregory-Portland,66.13,127.01,79.38,161.03,367.41,Single-ply,SBD,M
Boys,67.13,11,Tristen Taylor,Rockport-Fulton,61.33,113.4,79.38,145.15,337.93,Single-ply,SBD,M
Boys,67.13,12,Cameron McIver,George West,65.23,102.06,90.72,142.88,335.66,Single-ply,SBD,M
Boys,67.13,13,Josh Morvant,Sinton,64.41,129.27,61.23,129.27,319.78,Single-ply,SBD,M
Boys,67.13,14,Zeke Cantu,Banquete,67.13,99.79,83.91,136.08,319.78,Single-ply,SBD,M
Boys,67.13,15,Allen Ramos,Rockport-Fulton,62.23,83.91,74.84,142.88,301.64,Single-ply,SBD,M
Boys,67.13,DQ,Colton Hudspeth,Gregory-Portland,66.22,122.47,61.23,120.2,,Single-ply,SBD,M
Boys,74.84,DQ,Xaivian Stewart,Banquete,67.36,,,,,Single-ply,SBD,M
Boys,74.84,DQ,Jared Reilly,Corpus Christi Calallen,67.36,201.85,,,,Single-ply,SBD,M
Boys,67.13,DQ,Miguel Salazar,Corpus Christi Tuloso-Midway,63.5,195.04,,,,Single-ply,SBD,M
Boys,74.84,1,Tristan Pelitire,Beeville Jones,72.21,208.65,145.15,206.38,560.19,Single-ply,SBD,M
Boys,74.84,2,Billy Luster,Corpus Christi West Oso,73.26,233.6,111.13,215.46,560.19,Single-ply,SBD,M
Boys,74.84,3,Nathan Sanchez #3,Corpus Christi Calallen,71.89,197.31,102.06,213.19,512.56,Single-ply,SBD,M
Boys,74.84,4,Dillon Torres,Beeville Jones,71.3,185.97,120.2,201.85,508.02,Single-ply,SBD,M
Boys,74.84,5,Joe Caldera,Port Lavaca Calhoun,73.48,174.63,136.08,192.78,503.49,Single-ply,SBD,M
Boys,74.84,6,Jared Garcia,Corpus Christi Calallen,72.57,170.1,108.86,206.38,485.34,Single-ply,SBD,M
Boys,74.84,7,Ryan Rosas,Corpus Christi Tuloso-Midway,68.58,158.76,99.79,174.63,433.18,Single-ply,SBD,M
Boys,74.84,8,Aaron Flores #3,Corpus Christi Calallen,73.57,149.69,99.79,181.44,430.91,Single-ply,SBD,M
Boys,82.1,9,Roland Ybarra,Robstown,75.07,156.49,102.06,165.56,424.11,Single-ply,SBD,M
Boys,74.84,10,Byron Davidson,Corpus Christi Calallen,69.13,136.08,86.18,170.1,392.36,Single-ply,SBD,M
Boys,74.84,11,Trey Lopez,Rockport-Fulton,70.13,140.61,83.91,163.29,387.82,Single-ply,SBD,M
Boys,74.84,12,Joel Sandoval,Kingsville King,74.12,127.01,79.38,181.44,387.82,Single-ply,SBD,M
Boys,74.84,13,Edward DeLeon,Port Lavaca Calhoun,70.08,136.08,90.72,154.22,381.02,Single-ply,SBD,M
Boys,74.84,14,Neal Koczekuta,Rockport-Fulton,69.49,131.54,90.72,154.22,376.48,Single-ply,SBD,M
Boys,74.84,15,Josh Candelaria,Sinton,68.13,142.88,74.84,156.49,374.21,Single-ply,SBD,M
Boys,74.84,16,Duncan Marengo,Corpus Christi Tuloso-Midway,68.22,131.54,92.99,145.15,369.68,Single-ply,SBD,M
Boys,74.84,17,Ruben Salazar,Rockport-Fulton,73.21,129.27,74.84,156.49,360.61,Single-ply,SBD,M
Boys,74.84,18,Garrett Henneke,Victoria West,72.03,131.54,63.5,161.03,356.07,Single-ply,SBD,M
Boys,74.84,19,Johnathan Garza,Kingsville King,70.85,117.93,68.04,149.69,335.66,Single-ply,SBD,M
Boys,74.84,20,Shavarious Richards,Port Lavaca Calhoun,68.95,122.47,74.84,131.54,328.85,Single-ply,SBD,M
Boys,74.84,21,Nolan Ladewig,Ingleside,72.57,124.74,77.11,122.47,324.32,Single-ply,SBD,M
Boys,74.84,22,Patrick Torros,Ingleside,70.99,113.4,83.91,115.67,312.98,Single-ply,SBD,M
Boys,74.84,23,Travis Dibble,Victoria West,72.3,113.4,70.31,117.93,301.64,Single-ply,SBD,M
Boys,74.84,DQ,Daniel Green,Gregory-Portland,68.22,113.4,72.57,142.88,,Single-ply,SBD,M
Boys,74.84,DQ,Justin Sobrzak,Corpus Christi Tuloso-Midway,69.4,138.35,90.72,,,Single-ply,SBD,M
Boys,82.1,DQ,Javier Perez,Banquete,75.07,111.13,,,,Single-ply,SBD,M
Boys,74.84,DQ,Stevin Leal,Corpus Christi Tuloso-Midway,73.66,,,,,Single-ply,SBD,M
Boys,74.84,DQ,Chris McGlaun,Ingleside,70.31,,,,,Single-ply,SBD,M
Boys,74.84,DQ,Jacob Rivera,Port Lavaca Calhoun,71.94,,,,,Single-ply,SBD,M
Boys,74.84,DQ,Bobby Benavides,Robstown,68.86,,,,,Single-ply,SBD,M
Boys,82.1,1,Ryan Torres,Gregory-Portland,79.74,260.82,154.22,265.35,680.39,Single-ply,SBD,M
Boys,82.1,2,Andy Mohl,Corpus Christi Tuloso-Midway,80.83,247.21,161.03,226.8,635.03,Single-ply,SBD,M
Boys,82.1,3,Jacob Flores,Beeville Jones,81.42,215.46,108.86,208.65,532.97,Single-ply,SBD,M
Boys,89.81,4,Quinton Baria,Corpus Christi Tuloso-Midway,82.28,199.58,127.01,195.04,521.63,Single-ply,SBD,M
Boys,82.1,5,Chris Hernandez,Gregory-Portland,80.51,199.58,111.13,204.12,514.83,Single-ply,SBD,M
Boys,82.1,6,Lorenzo Landin,Gregory-Portland,77.11,183.7,108.86,204.12,496.68,Single-ply,SBD,M
Boys,82.1,7,Matt Martinez,George West,76.93,195.04,102.06,165.56,462.66,Single-ply,SBD,M
Boys,89.81,8,Diego Leal,Banquete,82.28,181.44,102.06,174.63,458.13,Single-ply,SBD,M
Boys,82.1,9,Aaron Villareal,Kingsville King,80.47,163.29,102.06,179.17,444.52,Single-ply,SBD,M
Boys,82.1,10,Dylan Sanchez,Victoria West,79.15,165.56,92.99,158.76,417.3,Single-ply,SBD,M
Boys,89.81,11,Roland Gutierrez,Corpus Christi West Oso,82.19,154.22,95.25,163.29,412.77,Single-ply,SBD,M
Boys,82.1,12,Alex Guzman,Sinton,80.65,145.15,79.38,165.56,390.09,Single-ply,SBD,M
Boys,82.1,13,JoeAllen Herrera,Beeville Jones,79.65,117.93,83.91,147.42,349.27,Single-ply,SBD,M
Boys,82.1,DQ,Dalton Sowell,Gregory-Portland,81.42,140.61,77.11,158.76,,Single-ply,SBD,M
Boys,82.1,DQ,Pablo Garza,Gregory-Portland,78.24,183.7,106.59,174.63,,Single-ply,SBD,M
Boys,82.1,DQ,Ian Spencer,Gregory-Portland,77.11,122.47,61.23,117.93,,Single-ply,SBD,M
Boys,82.1,DQ,Albert Guerrero,Gregory-Portland,79.38,115.67,83.91,136.08,,Single-ply,SBD,M
Boys,82.1,DQ,Steve Garza,Ingleside,78.56,188.24,,,,Single-ply,SBD,M
Boys,82.1,DQ,Michael McGlaun,Ingleside,81.37,183.7,,,,Single-ply,SBD,M
Boys,82.1,DQ,Dylan Lopez,Ingleside,75.93,,,,,Single-ply,SBD,M
Boys,89.81,1,Devin Bisby,Gregory-Portland,89.18,231.33,145.15,238.14,614.62,Single-ply,SBD,M
Boys,89.81,2,Matt Hartman #3,Victoria West,88.27,235.87,127.01,247.21,610.08,Single-ply,SBD,M
Boys,89.81,3,Fernando Flores,Corpus Christi Tuloso-Midway,87.09,188.24,117.93,229.06,535.24,Single-ply,SBD,M
Boys,89.81,4,Kenny Sanchez,Victoria West,89.54,201.85,127.01,201.85,530.7,Single-ply,SBD,M
Boys,89.81,5,Vincent Rodriguez,Corpus Christi Tuloso-Midway,86.18,183.7,151.95,183.7,519.36,Single-ply,SBD,M
Boys,89.81,6,Justin Musk,Gregory-Portland,83.19,210.92,115.67,183.7,510.29,Single-ply,SBD,M
Boys,89.81,7,Kevin Pena,Robstown,86.73,195.04,124.74,190.51,510.29,Single-ply,SBD,M
Boys,89.81,8,Trey Licerio,Victoria West,83.55,183.7,124.74,181.44,489.88,Single-ply,SBD,M
Boys,89.81,9,Riley Richardson,Gregory-Portland,89.27,183.7,108.86,190.51,483.08,Single-ply,SBD,M
Boys,89.81,10,Manny Jimenez,Kingsville King,87.72,181.44,102.06,183.7,467.2,Single-ply,SBD,M
Boys,89.81,11,AJ Roe,Rockport-Fulton,86.36,156.49,95.25,174.63,426.38,Single-ply,SBD,M
Boys,99.79,12,Billy Vance,Ingleside,90.04,158.76,113.4,145.15,417.3,Single-ply,SBD,M
Boys,89.81,13,Gilbert Jasso,Robstown,82.92,149.69,92.99,161.03,403.7,Single-ply,SBD,M
Boys,89.81,DQ,Daniel Pool,Gregory-Portland,89.13,147.42,95.25,183.7,,Single-ply,SBD,M
Boys,89.81,DQ,EJ Garza,Gregory-Portland,84.37,147.42,79.38,149.69,,Single-ply,SBD,M
Boys,89.81,DQ,Justin Lucio,Gregory-Portland,88.68,97.52,65.77,106.59,,Single-ply,SBD,M
Boys,89.81,DQ,Kameron Handy,Corpus Christi Tuloso-Midway,85.55,,,,,Single-ply,SBD,M
Boys,89.81,DQ,Richard Cortez,Corpus Christi West Oso,83.46,,,,,Single-ply,SBD,M
Boys,89.81,DQ,Danny Snodgrass,Ingleside,86.73,204.12,,,,Single-ply,SBD,M
Boys,89.81,DQ,Arturo Sanchez,Port Lavaca Calhoun,89.54,158.76,,,,Single-ply,SBD,M
Boys,89.81,DQ,Shaun Martinez,Victoria West,88.54,,,,,Single-ply,SBD,M
Boys,89.81,DQ,Brandon Cady,Victoria West,87.27,201.85,,,,Single-ply,SBD,M
Boys,99.79,1,Javiel Rojas,Kingsville King,91.63,272.16,140.61,281.23,694,Single-ply,SBD,M
Boys,99.79,2,Josh Perez,Sinton,98.43,226.8,174.63,233.6,635.03,Single-ply,SBD,M
Boys,99.79,3,Aric Gamez,Beeville Jones,93.26,226.8,138.35,195.04,560.19,Single-ply,SBD,M
Boys,99.79,4,Brendon Breland,Banquete,95.35,213.19,131.54,213.19,557.92,Single-ply,SBD,M
Boys,99.79,5,Jesse Gomez,Kingsville King,98.07,226.8,127.01,195.04,548.85,Single-ply,SBD,M
Boys,99.79,6,Justin Salinas,Kingsville King,97.61,210.92,120.2,179.17,510.29,Single-ply,SBD,M
Boys,99.79,7,Conner Chumchal,Victoria West,97.98,210.92,102.06,154.22,467.2,Single-ply,SBD,M
Boys,99.79,8,Bobby Salinas,Ingleside,90.95,165.56,108.86,170.1,444.52,Single-ply,SBD,M
Boys,99.79,9,Dabi Reyna,Robstown,95.44,142.88,92.99,190.51,426.38,Single-ply,SBD,M
Boys,99.79,10,Thomas Campos,Gregory-Portland,95.48,165.56,97.52,163.29,426.38,Single-ply,SBD,M
Boys,99.79,11,Edward Silva,Robstown,97.89,142.88,97.52,181.44,421.84,Single-ply,SBD,M
Boys,99.79,12,Zeke Calzada,Port Lavaca Calhoun,97.7,145.15,111.13,163.29,419.57,Single-ply,SBD,M
Boys,99.79,13,Aaron Gutierrez,Kingsville King,97.89,111.13,79.38,129.27,319.78,Single-ply,SBD,M
Boys,99.79,14,Natheniel Segovia,Beeville Jones,93.67,115.67,54.43,74.84,244.94,Single-ply,SBD,M
Boys,99.79,DQ,Jose Ramos,Gregory-Portland,97.75,165.56,90.72,131.54,,Single-ply,SBD,M
Boys,99.79,DQ,Charles West,Gregory-Portland,97.89,158.76,88.45,136.08,,Single-ply,SBD,M
Boys,99.79,DQ,Tristan Schmidt,Gregory-Portland,96.25,147.42,104.33,163.29,,Single-ply,SBD,M
Boys,109.77,DQ,Oscar Cantu,Sinton,99.97,174.63,104.33,,,Single-ply,SBD,M
Boys,99.79,DQ,Joe Castillo #1,Corpus Christi West Oso,91.17,204.12,99.79,,,Single-ply,SBD,M
Boys,109.77,1,Michael Rodriguez #4,Kingsville King,105.69,260.82,183.7,226.8,671.32,Single-ply,SBD,M
Boys,109.77,2,Nick Trevino #2,Kingsville King,104.33,226.8,136.08,272.16,635.03,Single-ply,SBD,M
Boys,109.77,3,Blade Bronstad,Corpus Christi Calallen,105.32,244.94,127.01,242.67,614.62,Single-ply,SBD,M
Boys,109.77,4,Tk Nolte,Gregory-Portland,107.5,244.94,136.08,233.6,614.62,Single-ply,SBD,M
Boys,109.77,5,Bryan Chesser,George West,105.87,217.72,136.08,195.04,548.85,Single-ply,SBD,M
Boys,124.74,6,Ned Olvera,Sinton,110,219.99,145.15,183.7,548.85,Single-ply,SBD,M
Boys,109.77,7,Truman Jenkins,Rockport-Fulton,107.27,210.92,120.2,183.7,514.83,Single-ply,SBD,M
Boys,109.77,8,Louis Ortiz,Gregory-Portland,109.54,163.29,113.4,151.95,428.64,Single-ply,SBD,M
Boys,124.74,9,Johnathan Lopez,Banquete,109.95,142.88,115.67,149.69,408.23,Single-ply,SBD,M
Boys,109.77,10,Julian Hernandez,Port Lavaca Calhoun,109.68,145.15,104.33,149.69,399.16,Single-ply,SBD,M
Boys,109.77,11,Jose Solis,Ingleside,101.33,136.08,113.4,136.08,385.55,Single-ply,SBD,M
Boys,109.77,12,Ben Morgan,Victoria West,106.59,140.61,70.31,138.35,349.27,Single-ply,SBD,M
Boys,109.77,DQ,Frank Meza,Kingsville King,105.69,,,,,Single-ply,SBD,M
Boys,109.77,DQ,Tony Barrera,Corpus Christi Tuloso-Midway,102.87,,,,,Single-ply,SBD,M
Boys,124.74,1,Richie Salinas,Kingsville King,121.79,242.67,195.04,204.12,641.83,Single-ply,SBD,M
Boys,124.74,2,Brandon Michaels,Gregory-Portland,123.01,249.48,129.27,222.26,601.01,Single-ply,SBD,M
Boys,124.74,3,Ryan Gutierrez,Rockport-Fulton,115.12,226.8,124.74,206.38,557.92,Single-ply,SBD,M
Boys,124.74,4,Toshido Paz,Sinton,124.19,204.12,163.29,188.24,555.65,Single-ply,SBD,M
Boys,124.74,5,Dylan Duff,Corpus Christi Calallen,111.31,181.44,131.54,158.76,471.74,Single-ply,SBD,M
Boys,124.74,6,Stephen Merrell,Rockport-Fulton,110.4,170.1,90.72,174.63,435.45,Single-ply,SBD,M
Boys,124.74,7,Forest Unterbrink,Rockport-Fulton,118.39,156.49,102.06,161.03,419.57,Single-ply,SBD,M
Boys,124.74,DQ,Marc Marcha,Gregory-Portland,110.31,142.88,77.11,,,Single-ply,SBD,M
Boys,124.74,DQ,Zac Melton,Corpus Christi West Oso,121.34,188.24,,,,Single-ply,SBD,M
Boys,124.74+,1,Adam Aleman,Beeville Jones,153.13,322.05,145.15,258.55,725.75,Single-ply,SBD,M
Boys,124.74+,2,Bryan Tschatschula,Port Lavaca Calhoun,145.97,265.35,181.44,226.8,673.58,Single-ply,SBD,M
Boys,124.74+,3,Hector Garza,Robstown,143.43,226.8,133.81,210.92,571.53,Single-ply,SBD,M
Boys,124.74+,4,Jacob Garnand,Rockport-Fulton,131.18,208.65,124.74,204.12,537.51,Single-ply,SBD,M
Boys,124.74+,5,Eli Garcia,George West,131.45,231.33,120.2,185.97,537.51,Single-ply,SBD,M
Boys,124.74+,6,Joshua Sambrano,Corpus Christi West Oso,137.89,142.88,129.27,215.46,487.61,Single-ply,SBD,M
Boys,124.74+,7,Kamar Shelton,Kingsville King,150.23,154.22,102.06,213.19,469.47,Single-ply,SBD,M
Boys,124.74+,8,Daniel Sánchez,Victoria West,129.36,199.58,102.06,151.95,453.59,Single-ply,SBD,M
Boys,124.74+,DQ,Mathew Moya,Corpus Christi West Oso,127.82,199.58,124.74,,,Single-ply,SBD,M
Boys,124.74+,DQ,Luis Lopez #1,Kingsville King,135.35,,,,,Single-ply,SBD,M
